    1  gcloud config get-value project
    2  gcloud config set project plenary-agility-251114
    3  gcloud config get-value project
    4  gcloud config set project plenary-agility-251114
    5  gcloud config get-value project
    6  gsutil mb -p de-program-team-a -c standard -l us-central1 -b on gs://datahack-taquila-datalake-landing
    7  pwd
    8  git
    9  ls
   10  git clone https://github.com/GoogleCloudPlatform/python-docs-samples
   11  ls
   12  cd python-docs-samples/
   13  ls
   14  ls | grep -v cloud-sql | xargs rm -r
   15  ls
   16  cd cloud-sql/
   17  ls
   18  cd ..
   19  ls
   20  mv cloud-sql/mysql/sqlalchemy/ /home/joselounmsm2012/
   21  ls /home/joselounmsm2012/
   22  ls /home/joselounmsm2012/sqlalchemy/
   23  ll /home/joselounmsm2012/sqlalchemy/
   24  cd /home/joselounmsm2012/sqlalchemy/
   25  ll
   26  cat main.py 
   27  head -15 main.py 
   28  tail -12 main.py 
   29  wc -c -w -l app.flexible.yaml > stats.txt
   30  ls
   31  cat stats.txt 
   32  grep RUN Dockerfile
   33  ls
   34  history> run_stats.txt
   35  history>history.txt
   36  ls
   37  git config --global user.name "Jose Alfredo"
   38  git config --global user.email "joselounmsm2012@gmail.com"
   39  git remote add origin  git@gitlab.com:joselounmsm2012/tema-2-bash-a1.git
   40  git remote add origin https://gitlab.com/joselounmsm2012/tema-2-bash-a1.git
   41  ls
   42  cd ..
   43  ls
   44  git remote add origin https://gitlab.com/joselounmsm2012/tema-2-bash-a1.git
   45  ls
   46  cd python-docs-samples/
   47  ll
   48  git status
   49  git log
   50  ls
   51  cd ..
   52  ls
   53  pwd
   54  ls
   55  cd python-docs-samples/
   56  ls
   57  cd cloud-sql/
   58  ll
   59  ls
   60  cd ..
   61  ls
   62  cd ..
   63  ls
   64  cd python-docs-samples/
   65  ll
   66  git re
   67  cd /home/joselounmsm2012/sqlalchemy/
   68  ls
   69  git init
   70  ls
   71  ll
   72  git add .
   73  git commit -m "Commit TEMA 2 BASH A1 YOU DO"
   74  git remote add origin
   75  git remote add origin https://gitlab.com/joselounmsm2012/tema-2-bash-a1.git
   76  git checkout -b josetaquiladomingo
   77  git commit -m "commit branch jose"
   78  git status
   79  git add .
   80  git push origin master
   81  git pull origin master
   82  git checkout master
   83  git pull origin master
   84  git status
   85  git checkout -b josetaquiladomingo
   86  git checkout josetaquiladomingo
   87  git status
   88  git pull origin master
   89  git pull --allow-unrelated-histories
   90  git push --set-upstream origin master
   91  git pull --set-upstream origin master
   92  git pull origin josetaquiladomingo
   93  git pull origin master
   94  git pull origin master --allow-unrelated-histories
   95  git pull origin master
   96  git status
   97  git add .
   98  git status
   99  git pull origin master
  100  git commit -m "Commit tema 2 bash a1 you do"
  101  git status
  102  git pull origin master
  103  git pull origin master --allow-unrelated-histories
  104  git status
  105  git add .
  106  git status
  107  git push origin master
  108  git pull origin master
  109  git merge master josetaquiladomingo
  110  git checkout josetaquiladomingo
  111  git status
  112  git checkout master
  113  git status
  114  git pull origin master
  115  git merge master josetaquiladomingo
  116  git pull origin master
  117  git pull origin josetaquiladomingo
  118  git add .
  119  git staus
  120  git status
  121  git commit -m "commit final"
  122  branch
  123  git branch
  124  git pull origin master
  125  git push origin master
  126  history > history2.txt
